7 Geodaten | Data Science für die Humangeographie: Ein pragmatischer Einstieg mit R
…
Eine neue Messreihe lässt sich z.B. so errechnen:

alter <- 2020 - baumkataster$Pflanzjahr
head(alter)

## [1] 100 100 100 100 100 100

Der Befehl mutate() funktioniert sehr ähnlich, gibt aber den veränderten Datensatz zurück:

mutate(baumkataster, alter = 2020 - Pflanzjahr)

## # A tibble: 118,403 x 8
##    `Gattung/Art/De… Baumnummer Objekt Pflanzjahr
##    <chr>                 <dbl> <chr>       <dbl>
##  1 Platanus x hisp…          1 Acker…       1920
##  2 Platanus x hisp…          2 Acker…       1920
##  3 Platanus x hisp…          3 Acker…       1920
##  4 Platanus x hisp…          4 Acker…       1920
##  5 Platanus x hisp…          5 Acker…       1920
##  6 Platanus x hisp…          6 Acker…       1920
##  7 Platanus x hisp…          7 Acker…       1920
##  8 Platanus x hisp…          8 Acker…       1920
##  9 Platanus x hisp…          9 Acker…       1920
## 10 Platanus x hisp…         10 Acker…       1920
## # … with 118,393 more rows, and 4 more variables:
## #   Kronendurchmesser <dbl>, HOCHWERT <dbl>,
## #   RECHTSWERT <dbl>, alter <dbl>

Derselbe Befehl mit dem Pipe-Operator:

baumkataster %>%
  mutate(alter = 2020 - Pflanzjahr)

## # A tibble: 118,403 x 8
##    `Gattung/Art/De… Baumnummer Objekt Pflanzjahr
##    <chr>                 <dbl> <chr>       <dbl>
##  1 Platanus x hisp…          1 Acker…       1920
##  2 Platanus x hisp…          2 Acker…       1920
##  3 Platanus x hisp…          3 Acker…       1920
##  4 Platanus x hisp…          4 Acker…       1920
##  5 Platanus x hisp…          5 Acker…       1920
##  6 Platanus x hisp…          6 Acker…       1920
##  7 Platanus x hisp…          7 Acker…       1920
##  8 Platanus x hisp…          8 Acker…       1920
##  9 Platanus x hisp…          9 Acker…       1920
## 10 Platanus x hisp…         10 Acker…       1920
## # … with 118,393 more rows, and 4 more variables:
## #   Kronendurchmesser <dbl>, HOCHWERT <dbl>,
## #   RECHTSWERT <dbl>, alter <dbl>
…
