Sitzung 17 String manipulation | Data Science für die Humangeographie: Ein pragmatischer Einstieg mit R
…
Über mehrere Tabellen, mit gleichzeitigem Kombinieren:

relevante_tabellen %>%
  map(mutate, across(c(2, 3), as.character)) %>%
  bind_rows() -> komplett

komplett
## # A tibble: 184 x 5
##    Name     `Elevation (m)` `Elevation (ft)` Coordinates         `Last eruption`
##    <chr>    <chr>           <chr>            <chr>               <chr>          
##  1 Akaigaw… 725             2379             .mw-parser-output … 1.3 Ma BP[† 1] 
##  2 Mount A… 512             1680             43°36′36″N 144°26′… 1000-200 BP[† …
##  3 Daisets… 2290            7513             43°39′47″N 142°51′… AD 1739[† 1]   
##  4 Mount E… 1320            4331             42°47′35″N 141°17′… 17th century[†…
##  5 Mount E… 613             2028             41°48′14″N 141°09′… AD 1874[† 1]   
##  6 Akan Ca… -               -                43°27′04″N 144°06′… 0.25 Ma BP[† 1]
##  7 Mount M… 1499            4916             43°23′10″N 144°00′… AD 2008[† 1]   
##  8 Mount O… 1370            4495             43°27′11″N 144°09′… 5-2.5 ka BP[† …
##  9 Mount Iō 1563            5128             44°07′52″N 145°09′… AD 1936[† 1]   
## 10 Kusshar… -               -                43°37′16″N 144°20′… 2.3 ka BP[† 1] 
## # … with 174 more rows
…
parse_number("Temperatur: -8° C")
## [1] -8

Mit dem Befehl mutate() lassen sich neue Spalten erstellen, oder vorhandene Spalten überschreiben. Mit select() können Spalten selektiert oder (mit einem -) ,gelöscht‘ werden.

Der folgende Befehl wandelt die Spalte Elevation (m) in Zahlen um, gibt dieser neuen Spalte den Namen elevation_m und selektiert dann alles außer den alten Elevation-Spalten:

komplett %>%
  mutate(elevation_m = parse_number(`Elevation (m)`)) %>%
  select(-`Elevation (m)`, -`Elevation (ft)`)  -> vulkane_elev

Wobei das Attribut problems darauf hinweist, dass in manchen Strings keine Zahl gefunden wurde. Funktioniert hat es trotzdem (mit NA für fehlende Werte).

vulkane_elev
## # A tibble: 184 x 4
##    Name          Coordinates                         `Last eruption` elevation_m
##    <chr>         <chr>                               <chr>                 <dbl>
##  1 Akaigawa Cal… .mw-parser-output .geo-default,.mw… 1.3 Ma BP[† 1]          725
##  2 Mount Atosan… 43°36′36″N 144°26′17″E﻿ / ﻿43.610°…   1000-200 BP[† …         512
##  3 Daisetsuzan … 43°39′47″N 142°51′14″E﻿ / ﻿43.663°…   AD 1739[† 1]           2290
##  4 Mount Eniwa   42°47′35″N 141°17′06″E﻿ / ﻿42.793°…   17th century[†…        1320
##  5 Mount Esan    41°48′14″N 141°09′58″E﻿ / ﻿41.804°…   AD 1874[† 1]            613
##  6 Akan Caldera… 43°27′04″N 144°06′36″E﻿ / ﻿43.451°…   0.25 Ma BP[† 1]          NA
##  7 Mount Meakan  43°23′10″N 144°00′29″E﻿ / ﻿43.386°…   AD 2008[† 1]           1499
##  8 Mount Oakan   43°27′11″N 144°09′47″E﻿ / ﻿43.453°…   5-2.5 ka BP[† …        1370
##  9 Mount Iō      44°07′52″N 145°09′54″E﻿ / ﻿44.131°…   AD 1936[† 1]           1563
## 10 Kussharo Cal… 43°37′16″N 144°20′10″E﻿ / ﻿43.621°…   2.3 ka BP[† 1]           NA
## # … with 174 more rows
…
Die Muster müssen dabei im RegEx-Format (regular expressions, reguläre Ausdrücke) angegeben werden. Reguläre Ausdrücke sind nicht R-spezifisch, sonderen kommen in allen geläufigen Programmiersprachen zum Einsatz.

Es kann eine große Herausforderung sein, ein RegEx-Muster zu basteln, das genau das macht, was man will. Dabei können browserbasierte Testumgebungen wie https://www.regexpal.com/ behilflich sein. Für einen systematischeren Zugang empfiehlt es sich, ein Tutorial wie https://regexone.com/ durchzuarbeiten.

Im folgenden Befehl werden reguläre Ausdrücke direkt in Kombination mit mutate() benutzt, um metrische Koordinaten zu extrahieren:

vulkane_elev %>%
  mutate(Coordinates = str_extract(Coordinates, "[0-9.]+; [0-9.]+"),
         latitude = str_remove(Coordinates, "; [0-9.]+") %>% as.numeric,
         longitude = str_remove(Coordinates, "[0-9.]+; ") %>% as.numeric) %>%
  select(-Coordinates) -> vulkane_geo

vulkane_geo
## # A tibble: 184 x 5
##    Name                       `Last eruption`   elevation_m latitude longitude
##    <chr>                      <chr>                   <dbl>    <dbl>     <dbl>
##  1 Akaigawa Caldera           1.3 Ma BP[† 1]            725     43.1      141.
##  2 Mount Atosanupuri          1000-200 BP[† 1]          512     43.6      144.
##  3 Daisetsuzan Volcanic Group AD 1739[† 1]             2290     43.7      143.
##  4 Mount Eniwa                17th century[† 1]        1320     42.8      141.
##  5 Mount Esan                 AD 1874[† 1]              613     41.8      141.
##  6 Akan Caldera [ja]          0.25 Ma BP[† 1]            NA     43.5      144.
##  7 Mount Meakan               AD 2008[† 1]             1499     43.4      144.
##  8 Mount Oakan                5-2.5 ka BP[† 1]         1370     43.5      144.
##  9 Mount Iō                   AD 1936[† 1]             1563     44.1      145.
## 10 Kussharo Caldera           2.3 ka BP[† 1]             NA     43.6      144.
## # … with 174 more rows
…
