5 Visualisierungen | Data Science für die Humangeographie: Ein pragmatischer Einstieg mit R
…
            Data Science für die Humangeographie: Ein pragmatischer Einstieg mit R

5 Visualisierungen

5.1 Voraussetzungen

Für diese Lektion benötigen wir das Paket tidyverse:

library(tidyverse)

Und einen Datensatz, der in Form eines tibble vorliegt. Der Beispieldatensatz diamonds wird mitgeliefert:

diamonds

## # A tibble: 53,940 x 10
##    carat cut      color clarity depth table price     x
##    <dbl> <ord>    <ord> <ord>   <dbl> <dbl> <int> <dbl>
##  1 0.23  Ideal    E     SI2      61.5    55   326  3.95
##  2 0.21  Premium  E     SI1      59.8    61   326  3.89
##  3 0.23  Good     E     VS1      56.9    65   327  4.05
##  4 0.290 Premium  I     VS2      62.4    58   334  4.2 
##  5 0.31  Good     J     SI2      63.3    58   335  4.34
##  6 0.24  Very Go… J     VVS2     62.8    57   336  3.94
##  7 0.24  Very Go… I     VVS1     62.3    57   336  3.95
##  8 0.26  Very Go… H     SI1      61.9    55   337  4.07
##  9 0.22  Fair     E     VS2      65.1    61   337  3.87
## 10 0.23  Very Go… H     VS1      59.4    61   338  4   
## # … with 53,930 more rows, and 2 more variables:
## #   y <dbl>, z <dbl>
…
