Sitzung 11 Web scraping | Data Science für die Humangeographie: Ein pragmatischer Einstieg mit R
…
  return(Nutzungsentgelte)
}

# Dann kann ich die eigene Funktion "scrape" auf alle Links anwenden. Das
# Ergebnis ist eine Liste von Tibbles. Die lässt sich schließlich noch
# kombinieren:

index$links %>%
 paste0("https://www.studentenwerkfrankfurt.de", .) %>%
  map(scrape) %>%
  do.call(bind_rows, .) -> liste

liste
## # A tibble: 133 x 8
##    Art   `Größe m²` Ausstattung `EUR*` strasse ort  
##    <chr> <chr>      <chr>       <chr>  <chr>   <chr>
##  1 "Ein… "16"       "unmöblier… "250,… Beetho… 6032…
##  2 "Ein… "18-20"    "unmöblier… "311,… Beetho… 6032…
##  3 "Ein… "24"       "barrieref… "295,… Beetho… 6032…
##  4 ""    ""         ""          ""     Beetho… 6032…
##  5 "Ein… "9"        "möbliert,… "207,… Bocken… 6032…
##  6 "Ein… "15"       "unmöblier… "236,… Bocken… 6032…
##  7 "Zwe… "45"       "unmöblier… "Bele… Bocken… 6032…
##  8 "Ein… "11 - 17"  "unmöblier… "256,… Fröbel… 6048…
##  9 "Ein… "11"       "möbliert,… "266,… Fröbel… 6048…
## 10 "Ein… "23"       "unmöblier… "315,… Fröbel… 6048…
## # … with 123 more rows, and 2 more variables:
## #   baujahr <dbl>, anzahl_plaetze <dbl>
